<svg width="114" height="33" viewBox="0 0 114 33" fill="none" xmlns="http://www.w3.org/2000/svg">
<g id="logo">
<g id="topnews.">
<path d="M8.01875 12.233H4.59646L4.58214 25.0489H2.57745L2.59177 12.233H0V10.1467H2.59177L2.57745 5.46741H4.58214L4.59646 10.1467H8.01875V12.233Z" fill="#006CE5"/>
<path d="M16.483 25.4364C15.1656 25.4364 13.9628 25.0837 12.8745 24.3783C11.7958 23.6729 10.9319 22.7291 10.2827 21.5469C9.64316 20.3547 9.32336 19.0383 9.32336 17.5978C9.32336 16.505 9.50951 15.4867 9.88181 14.5428C10.2541 13.5891 10.7648 12.7546 11.414 12.0393C12.0726 11.314 12.8363 10.7478 13.705 10.3404C14.5737 9.9331 15.4997 9.72944 16.483 9.72944C17.8003 9.72944 18.9984 10.0821 20.0771 10.7875C21.1653 11.4929 22.0293 12.4416 22.6688 13.6338C23.318 14.826 23.6426 16.1473 23.6426 17.5978C23.6426 18.6807 23.4564 19.694 23.0841 20.6379C22.7118 21.5817 22.1963 22.4162 21.5376 23.1414C20.8885 23.8567 20.1296 24.418 19.2609 24.8254C18.4017 25.2327 17.4758 25.4364 16.483 25.4364ZM16.483 23.3501C17.4567 23.3501 18.3301 23.0868 19.1034 22.5602C19.8862 22.0238 20.5019 21.3184 20.9505 20.4441C21.4088 19.5699 21.6379 18.6211 21.6379 17.5978C21.6379 16.5546 21.4088 15.5959 20.9505 14.7217C20.4923 13.8375 19.8718 13.1321 19.089 12.6056C18.3158 12.079 17.4471 11.8157 16.483 11.8157C15.5093 11.8157 14.631 12.084 13.8482 12.6205C13.075 13.147 12.4593 13.8474 12.001 14.7217C11.5524 15.5959 11.328 16.5546 11.328 17.5978C11.328 18.6708 11.5619 19.6444 12.0297 20.5186C12.4974 21.383 13.1227 22.0734 13.9055 22.59C14.6883 23.0967 15.5474 23.3501 16.483 23.3501Z" fill="#006CE5"/>
<path d="M28.0725 32.5H26.0679V10.1467H28.0725V12.9334C28.5689 11.9896 29.2467 11.2246 30.1059 10.6385C30.965 10.0523 31.9865 9.75924 33.1702 9.75924C34.2107 9.75924 35.1844 9.9629 36.0913 10.3702C37.0077 10.7776 37.8096 11.3438 38.4969 12.0691C39.1842 12.7844 39.7236 13.6139 40.115 14.5578C40.5064 15.5016 40.7021 16.5149 40.7021 17.5978C40.7021 18.6807 40.5064 19.699 40.115 20.6528C39.7236 21.6065 39.1842 22.446 38.4969 23.1712C37.8096 23.8865 37.0077 24.4478 36.0913 24.8552C35.1844 25.2625 34.2107 25.4662 33.1702 25.4662C31.9865 25.4662 30.965 25.1731 30.1059 24.5869C29.2467 24.0008 28.5689 23.2358 28.0725 22.292V32.5ZM33.1559 11.7859C32.1535 11.7859 31.2801 12.0492 30.5355 12.5758C29.8004 13.0924 29.2324 13.7878 28.8315 14.6621C28.4305 15.5363 28.2301 16.5149 28.2301 17.5978C28.2301 18.6608 28.4258 19.6344 28.8171 20.5186C29.2181 21.4028 29.7861 22.1082 30.5211 22.6347C31.2657 23.1613 32.144 23.4246 33.1559 23.4246C34.1487 23.4246 35.0603 23.1663 35.8908 22.6496C36.7309 22.133 37.4039 21.4376 37.9098 20.5633C38.4158 19.6791 38.6688 18.6906 38.6688 17.5978C38.6688 16.5348 38.4206 15.5661 37.9242 14.6919C37.4278 13.8077 36.7643 13.1023 35.9338 12.5758C35.1033 12.0492 34.1773 11.7859 33.1559 11.7859Z" fill="#006CE5"/>
<path d="M56.3841 15.6307V25.0489H52.8902V16.5845C52.8902 15.9983 52.7518 15.4668 52.4749 14.9899C52.1981 14.5031 51.8258 14.1206 51.358 13.8424C50.8998 13.5543 50.3891 13.4103 49.8259 13.4103C49.2626 13.4103 48.7472 13.5543 48.2794 13.8424C47.8212 14.1206 47.4536 14.5031 47.1768 14.9899C46.9095 15.4668 46.7759 15.9983 46.7759 16.5845V25.0489H43.282L43.2677 10.1467H46.7616L46.7759 11.473C47.2627 10.9365 47.845 10.5143 48.5228 10.2063C49.2006 9.88839 49.9309 9.72944 50.7136 9.72944C51.7542 9.72944 52.704 9.99768 53.5632 10.5342C54.4223 11.0607 55.1049 11.771 55.6108 12.6652C56.1263 13.5494 56.3841 14.5379 56.3841 15.6307Z" fill="#006CE5"/>
<path d="M65.2577 25.4364C63.9403 25.4364 62.7375 25.0837 61.6493 24.3783C60.5706 23.6729 59.7066 22.7242 59.0575 21.532C58.4179 20.3398 58.0981 19.0234 58.0981 17.5829C58.0981 16.5 58.2843 15.4867 58.6566 14.5428C59.0289 13.5891 59.5396 12.7546 60.1887 12.0393C60.8474 11.314 61.6111 10.7478 62.4798 10.3404C63.3485 9.9331 64.2744 9.72944 65.2577 9.72944C66.3746 9.72944 67.396 9.97781 68.322 10.4745C69.2575 10.9614 70.0499 11.632 70.699 12.4863C71.3481 13.3407 71.8207 14.3143 72.1166 15.4072C72.4125 16.5 72.4793 17.6425 72.3171 18.8347H61.8497C61.9834 19.391 62.2029 19.8927 62.5084 20.3398C62.8139 20.7769 63.2005 21.1296 63.6683 21.3979C64.136 21.6562 64.6658 21.7903 65.2577 21.8002C65.8687 21.8102 66.4223 21.6611 66.9187 21.3532C67.4247 21.0352 67.8447 20.608 68.1788 20.0716L71.7443 20.9359C71.162 22.2572 70.2933 23.3401 69.1382 24.1846C67.9831 25.0191 66.6896 25.4364 65.2577 25.4364ZM61.7352 16.1076H68.7802C68.6752 15.5115 68.4509 14.975 68.1072 14.4981C67.7731 14.0113 67.3578 13.6239 66.8615 13.3358C66.3651 13.0477 65.8305 12.9036 65.2577 12.9036C64.6849 12.9036 64.1551 13.0477 63.6683 13.3358C63.1814 13.6139 62.7662 13.9964 62.4225 14.4832C62.0884 14.9601 61.8593 15.5016 61.7352 16.1076Z" fill="#006CE5"/>
<path d="M81.3643 25.0489H77.8991L73.1165 10.1467H76.5388L79.646 19.7884L82.739 10.1467H86.1899L89.2828 19.7884L92.3901 10.1467H95.8124L91.0298 25.0489H87.5645L84.4573 15.3625L81.3643 25.0489Z" fill="#006CE5"/>
<path d="M102.056 25.3171C101.311 25.2675 100.59 25.1135 99.8936 24.8552C99.2063 24.5869 98.5953 24.2243 98.0607 23.7673C97.5261 23.3103 97.1157 22.7639 96.8293 22.1281L99.779 20.8167C99.8936 21.0154 100.08 21.229 100.337 21.4575C100.595 21.676 100.901 21.8598 101.254 22.0089C101.617 22.1579 102.013 22.2324 102.442 22.2324C102.805 22.2324 103.149 22.1827 103.473 22.0834C103.808 21.9741 104.075 21.8102 104.275 21.5916C104.485 21.373 104.59 21.0899 104.59 20.7422C104.59 20.3746 104.466 20.0914 104.218 19.8927C103.979 19.6841 103.674 19.5301 103.302 19.4308C102.939 19.3215 102.586 19.2221 102.242 19.1327C101.335 18.944 100.49 18.6509 99.7074 18.2535C98.9342 17.8561 98.3089 17.3445 97.8316 16.7186C97.3639 16.0827 97.13 15.3178 97.13 14.4236C97.13 13.4401 97.3782 12.5907 97.8746 11.8754C98.3805 11.16 99.0344 10.6087 99.8363 10.2212C100.648 9.83375 101.521 9.64002 102.457 9.64002C103.593 9.64002 104.633 9.88839 105.578 10.3851C106.533 10.8719 107.287 11.5624 107.841 12.4565L105.077 14.1554C104.943 13.917 104.757 13.6984 104.519 13.4997C104.28 13.2911 104.008 13.1222 103.702 12.993C103.397 12.8539 103.077 12.7745 102.743 12.7546C102.314 12.7347 101.922 12.7745 101.569 12.8738C101.216 12.9732 100.929 13.142 100.71 13.3805C100.5 13.6189 100.395 13.9368 100.395 14.3342C100.395 14.7117 100.538 14.9949 100.824 15.1836C101.111 15.3625 101.454 15.5016 101.855 15.6009C102.266 15.7003 102.657 15.8095 103.029 15.9288C103.87 16.2169 104.657 16.5695 105.392 16.9868C106.137 17.4041 106.733 17.9157 107.182 18.5217C107.631 19.1278 107.846 19.853 107.826 20.6975C107.826 21.6611 107.55 22.5056 106.996 23.2308C106.442 23.9461 105.726 24.4926 104.848 24.8701C103.979 25.2476 103.049 25.3966 102.056 25.3171Z" fill="#006CE5"/>
<path d="M111.852 25.4364C111.251 25.4364 110.74 25.2228 110.32 24.7956C109.909 24.3584 109.704 23.8269 109.704 23.201C109.704 22.5851 109.909 22.0585 110.32 21.6214C110.74 21.1843 111.251 20.9657 111.852 20.9657C112.444 20.9657 112.95 21.1843 113.37 21.6214C113.79 22.0585 114 22.5851 114 23.201C114 23.8269 113.79 24.3584 113.37 24.7956C112.95 25.2228 112.444 25.4364 111.852 25.4364Z" fill="#006CE5"/>
</g>
</g>
</svg>
